{
	"process_id" : 14556,
	"version" : "2019.4.18f1",
	"app_path" : "C:/Program Files/Unity/Editor/2019.4.18f1/Editor/Unity.exe",
	"app_contents_path" : "C:/Program Files/Unity/Editor/2019.4.18f1/Editor/Data"
}